…
``` r
hemsoborna <- tibble(row = read_lines("data/hemsoborna.txt", 
                                       skip = 90, n_max = 10178)) %>% 
  filter(row != "") %>% 
  mutate(row_no = 1:n())
hemsoborna
```
```r
    ## # A tibble: 5,088 × 2
    ##    row                   row_no
    ##    <chr>                  <int>
    ##  1 "\n"                       1
    ##  2 "\n"                       2
    ##  3 "\n"                       3
    ##  4 "\nHEMSÖBORNA"             4
    ##  5 "\n"                       5
    ##  6 "\nAV"                     6
    ##  7 "\n"                       7
    ##  8 "\nAUGUST STRINDBERG"      8
    ##  9 "\n"                       9
    ## 10 "\nSTOCKHOLM"             10
    ## # ℹ 5,078 more rows
```
…
- Vad gör egentligen `chapter = cumsum(str_detect(word, "kapitlet"))`?

Vi kan nu få de vanligaste orden med

``` r
hemsoborna_words %>% count(word, sort = TRUE)
```
```r
    ## # A tibble: 8,481 × 2
    ##    word      n
    ##    <chr> <int>
    ##  1 och    2457
    ##  2 i      1053
    ##  3 han     940
    ##  4 att     875
    ##  5 på      851
    ##  6 som     811
    ##  7 det     797
    ##  8 en      756
    ##  9 med     571
    ## 10 sig     509
    ## # ℹ 8,471 more rows
…
#### Olympiska medaljer

På
<https://sv.wikipedia.org/wiki/Medaljf%C3%B6rdelning_vid_olympiska_sommarspelen_2020>
hittar du medaljfördelningen för OS i Tokyo. Tabellen kan hämtas med

``` r
library(rvest)
url <- "https://sv.wikipedia.org/wiki/Medaljf%C3%B6rdelning_vid_olympiska_sommarspelen_2020"
read_html(url) %>% 
  html_element(".wikitable") %>% 
  html_table()
```
```r
    ## # A tibble: 94 × 7
    ##    Pl.   Land            Guld Silver Brons TAM    PEAM
    ##    <chr> <chr>          <int>  <int> <int> <chr> <int>
    ##  1 1     USA               39     41    33 113       1
    ##  2 2     Kina              38     32    18 88        2
    ##  3 3     Japan             27     14    17 58        5
    ##  4 4     Storbritannien    22     21    22 65        4
    ##  5 5     ROC               20     28    23 71        3
    ##  6 6     Australien        17      7    22 46        6
    ##  7 7     Nederländerna     10     12    14 36        9
    ##  8 8     Frankrike         10     12    11 33       10
    ##  9 9     Tyskland          10     11    16 37        8
    ## 10 10    Italien           10     10    20 40        7
    ## # ℹ 84 more rows
```
…
``` r
get_medals <- function(year){
  ...
}
```

som returnerar medaljtabellen för OS-år `year` som nedan (glöm inte ta
bort Total-raden). Tyvärr är inte alla kolumnnamn helt konsistenta, men
du behöver bara kolumnerna `Land`, `Guld`, `Silver` och `Brons`.

``` r
get_medals(2016)
```
``` r
    ## # A tibble: 264 × 4
    ##     year country        class  number
    ##    <dbl> <chr>          <chr>   <int>
    ##  1  2016 USA            Guld       46
    ##  2  2016 USA            Silver     37
    ##  3  2016 USA            Brons      38
    ##  4  2016 Storbritannien Guld       27
    ##  5  2016 Storbritannien Silver     23
    ##  6  2016 Storbritannien Brons      17
    ##  7  2016 Kina           Guld       26
    ##  8  2016 Kina           Silver     18
    ##  9  2016 Kina           Brons      26
    ## 10  2016 Ryssland       Guld       19
    ## # ℹ 254 more rows
```
…
- Konstruera en funktion

``` r
read_gapminder <- function(file, path = "data/gapminder_raw/"){
  ...
}
```

som genererar följande

``` r
read_gapminder("life_expectancy_years.csv")
```
```r
    ## # A tibble: 56,889 × 4
    ##    country     year  value variable             
    ##    <chr>       <chr> <dbl> <chr>                
    ##  1 Afghanistan 1800   28.2 life_expectancy_years
    ##  2 Afghanistan 1801   28.2 life_expectancy_years
    ##  3 Afghanistan 1802   28.2 life_expectancy_years
    ##  4 Afghanistan 1803   28.2 life_expectancy_years
    ##  5 Afghanistan 1804   28.2 life_expectancy_years
    ##  6 Afghanistan 1805   28.2 life_expectancy_years
    ##  7 Afghanistan 1806   28.1 life_expectancy_years
    ##  8 Afghanistan 1807   28.1 life_expectancy_years
    ##  9 Afghanistan 1808   28.1 life_expectancy_years
    ## 10 Afghanistan 1809   28.1 life_expectancy_years
    ## # ℹ 56,879 more rows
```
…
På <https://nobelprize.readme.io/> finns ett API där du kan hämta data
om nobelpriser och pristagare. Välj en kategori, t.ex.
[prize](https://nobelprize.readme.io/docs/prize) och prova göra ett
anrop under “Try it out” längst ned på sidan. Klicka “Try it!” och
notera den URL som genereras i fönstret under. Väljer vi format `csv`
och category `literature` blir denna
`http://api.nobelprize.org/v1/prize.csv?category=literature`. För att
hämta resultatet till R

``` r
response <- GET("http://api.nobelprize.org/v1/prize.csv?category=literature")
content(response)
```
``` r
    ## # A tibble: 119 × 8
    ##     year category   overallMotivation    id firstname  surname  motivation share
    ##    <dbl> <chr>      <lgl>             <dbl> <chr>      <chr>    <chr>      <dbl>
    ##  1  2022 literature NA                 1017 Annie      Ernaux   "\"for th…     1
    ##  2  2021 literature NA                 1004 Abdulrazak Gurnah   "\"for hi…     1
    ##  3  2020 literature NA                  993 Louise     Glück    "\"for he…     1
    ##  4  2019 literature NA                  980 Peter      Handke   "\"for an…     1
    ##  5  2018 literature NA                  979 Olga       Tokarcz… "\"for a …     1
    ##  6  2017 literature NA                  947 Kazuo      Ishiguro "\"who in…     1
    ##  7  2016 literature NA                  937 Bob        Dylan    "\"for ha…     1
    ##  8  2015 literature NA                  924 Svetlana   Alexiev… "\"for he…     1
    ##  9  2014 literature NA                  912 Patrick    Modiano  "\"for th…     1
    ## 10  2013 literature NA                  892 Alice      Munro    "\"master…     1
    ## # ℹ 109 more rows
```
…
Sidan innehåller fem tabeller där vi vill ha den första. Vi kan
extrahera denna med

``` r
html_table(elements[[1]])
```
``` r
    ## # A tibble: 94 × 7
    ##    Pl.   Land            Guld Silver Brons TAM    PEAM
    ##    <chr> <chr>          <int>  <int> <int> <chr> <int>
    ##  1 1     USA               39     41    33 113       1
    ##  2 2     Kina              38     32    18 88        2
    ##  3 3     Japan             27     14    17 58        5
    ##  4 4     Storbritannien    22     21    22 65        4
    ##  5 5     ROC               20     28    23 71        3
    ##  6 6     Australien        17      7    22 46        6
    ##  7 7     Nederländerna     10     12    14 36        9
    ##  8 8     Frankrike         10     12    11 33       10
    ##  9 9     Tyskland          10     11    16 37        8
    ## 10 10    Italien           10     10    20 40        7
    ## # ℹ 84 more rows
```

men väljer istället att utnyttja `class`-attributet `wikitable` eftersom
medaljtabellen inte ligger först på alla OS-sidor

``` r
elements <- html_elements(page, css = ".wikitable")
html_table(elements)
```
``` r
    ## [[1]]
    ## # A tibble: 94 × 7
    ##    Pl.   Land            Guld Silver Brons TAM    PEAM
    ##    <chr> <chr>          <int>  <int> <int> <chr> <int>
    ##  1 1     USA               39     41    33 113       1
    ##  2 2     Kina              38     32    18 88        2
    ##  3 3     Japan             27     14    17 58        5
    ##  4 4     Storbritannien    22     21    22 65        4
    ##  5 5     ROC               20     28    23 71        3
    ##  6 6     Australien        17      7    22 46        6
    ##  7 7     Nederländerna     10     12    14 36        9
    ##  8 8     Frankrike         10     12    11 33       10
    ##  9 9     Tyskland          10     11    16 37        8
    ## 10 10    Italien           10     10    20 40        7
    ## # ℹ 84 more rows
```
…
På linande sätt kan vi hämta aktuell tabell för Allsvenskan med

``` r
url <- "https://www.allsvenskan.se/tabell"
page <- read_html(url)
elements <- html_elements(page, css = ".col-md-6")
html_table(elements[[1]])
```
``` r
    ## # A tibble: 33 × 10
    ##    `#`   ``    LAG   ``                M     V     O     F     `+/-` P    
    ##    <chr> <lgl> <chr> <chr>             <chr> <chr> <chr> <chr> <chr> <chr>
    ##  1 1     NA    ""    IF Elfsborg       10    8     1     1     25-8  25   
    ##  2 2     NA    ""    Malmö FF          10    8     1     1     23-9  25   
    ##  3 3     NA    ""    BK Häcken         11    7     1     3     29-13 22   
    ##  4 4     NA    ""    Djurgården        11    6     1     4     16-14 19   
    ##  5 5     NA    ""    IF Brommapojkarna 11    6     1     4     15-14 19   
    ##  6 6     NA    ""    Kalmar FF         11    5     3     3     15-12 18   
    ##  7 7     NA    ""    IFK Norrköping    11    5     2     4     16-13 17   
    ##  8 8     NA    ""    Halmstads BK      11    5     1     5     11-16 16   
    ##  9 9     NA    ""    Mjällby AIF       11    4     3     4     9-9   15   
    ## 10 10    NA    ""    Hammarby          12    3     4     5     15-20 13   
    ## # ℹ 23 more rows
```
…
Här noterar vi att antalet rader i tabellen är listat som `??`, vilket
beror på att `dbplyr` ser till att bara hämta så mycket som är
nödvändigt för att visa tabellens inledande rader. Vill vi hämta hela
tabellen som en vanlig `tibble` använder vi `collect`

``` r
collect(movies)
```
``` r
    ## # A tibble: 36 × 4
    ##        id name             year  rank
    ##     <int> <chr>           <int> <dbl>
    ##  1  10920 Aliens           1986  8.20
    ##  2  17173 Animal House     1978  7.5 
    ##  3  18979 Apollo 13        1995  7.5 
    ##  4  30959 Batman Begins    2005 NA   
    ##  5  46169 Braveheart       1995  8.30
    ##  6 109093 Fargo            1996  8.20
    ##  7 111813 Few Good Men, A  1992  7.5 
    ##  8 112290 Fight Club       1999  8.5 
    ##  9 116907 Footloose        1984  5.80
    ## 10 124110 Garden State     2004  8.30
    ## # ℹ 26 more rows
```
…
