…
För att utöka tabellen `kommun_data` med nya variabler börjar vi med att skapa separata tabeller för varje variabel. Nedan följer instruktioner för fem tabeller A-E. **För godkänt resultat på uppgiften skall ni skapa minst tre av dessa tabeller samt lösa efterföljande hopslagning och illustration, varje tabell utöver detta ger en bonuspoäng om korrekt utförd.**

Tips: Ta gärna hjälp av RStudios *Import Dataset* under File-menyn när ni läser in filerna. Då får ni ett visuellt gränssnitt och kan sedan kopiera koden som genereras under *Code preview* nere till höger.

Notera att det kan förekomma koder i de numeriska kolumnerna (`~100`, `..`, `.`, ...) beroende på saknade värden eller att underlaget är så litet att värdet döljs av sekretessskäl. Dessa kan ges värde `NA` utan vidare diskussion.



### **A**: Andel invånare med utländsk härkomst

Denna tabell skall innehålla andelen invånare med utländsk härkomst baserat på data i `data/utl_harkomst_2022-06-15.csv` (hämtad från [SCB](https://www.statistikdatabasen.scb.se/pxweb/sv/ssd/START__BE__BE0101__BE0101Q/UtlSvBakgGrov/)). Tabellen behöver vridas, förslagsvis i två steg där det första genererar tabellen

```r
## # A tibble: 11,600 × 4
##    region              `utländsk/svensk bakgrund` year  count
##    <chr>               <chr>                      <chr> <dbl>
##  1 0114 Upplands Väsby utländsk bakgrund          2002  10132
##  2 0114 Upplands Väsby utländsk bakgrund          2003  10327
##  3 0114 Upplands Väsby utländsk bakgrund          2004  10507
##  4 0114 Upplands Väsby utländsk bakgrund          2005  10708
##  5 0114 Upplands Väsby utländsk bakgrund          2006  10913
##  6 0114 Upplands Väsby utländsk bakgrund          2007  11167
##  7 0114 Upplands Väsby utländsk bakgrund          2008  11488
##  8 0114 Upplands Väsby utländsk bakgrund          2009  11839
##  9 0114 Upplands Väsby utländsk bakgrund          2010  12350
## 10 0114 Upplands Väsby utländsk bakgrund          2011  13115
## # ℹ 11,590 more rows
```
och det andra

```r
## # A tibble: 5,800 × 4
##    region              year  `utländsk bakgrund` `svensk bakgrund`
##    <chr>               <chr>               <dbl>             <dbl>
##  1 0114 Upplands Väsby 2002                10132             27312
##  2 0114 Upplands Väsby 2003                10327             27070
##  3 0114 Upplands Väsby 2004                10507             27010
##  4 0114 Upplands Väsby 2005                10708             26916
##  5 0114 Upplands Väsby 2006                10913             26935
##  6 0114 Upplands Väsby 2007                11167             26888
##  7 0114 Upplands Väsby 2008                11488             26760
##  8 0114 Upplands Väsby 2009                11839             26802
##  9 0114 Upplands Väsby 2010                12350             26939
## 10 0114 Upplands Väsby 2011                13115             27079
## # ℹ 5,790 more rows
```
varefter den eftersökta andelen kan bestämmas. Det går bra att kombinera alla stegen i en pipe. Använd slutligen `separate` för att dela upp `region` i `code` och `name` som ovan (se på `?separate` hur du kan använda argumentet `extra`). Slutresultatet skall innehålla kolumner `code`, `name`, `year` och `foreign_perc`.

### **B**: Medelinkomst

Denna tabell skall innehålla inkomster i form av medelmånadslön (utan uppdelning efter kön) i tusental kronor. I `data/inkomst_2022-06-15.csv` finns total årsinkomst  och antal personer (ålder 16+) uppdelat på kvinnor och män. Sammanställ data till motsvarande nedanstående tabellformat.

```r
## # A tibble: 6,380 × 4
##    code  name            year income
##    <chr> <chr>          <dbl>  <dbl>
##  1 0114  Upplands Väsby  1999   16.3
##  2 0114  Upplands Väsby  2000   17.1
##  3 0114  Upplands Väsby  2001   17.9
##  4 0114  Upplands Väsby  2002   18.3
##  5 0114  Upplands Väsby  2003   18.7
##  6 0114  Upplands Väsby  2004   18.9
##  7 0114  Upplands Väsby  2005   19.3
##  8 0114  Upplands Väsby  2006   19.8
##  9 0114  Upplands Väsby  2007   20.5
## 10 0114  Upplands Väsby  2008   21.3
## # ℹ 6,370 more rows
```


### **C**: Våldsbrott

Denna tabell skall innehålla antalet anmälda våldsbrott per 100000 invånare. Data är hämtade från [Kolada](https://www.kolada.se/verktyg/fri-sokning/) och sparade i en Excel-fil `data/Kolada_vldsbrott_2022-06-15.xlsx` (läs med `readxl::read_excel`). Tabellens utseende skall motsvara

```r
## # A tibble: 6,380 × 3
##    name   year viol_crime
##    <chr> <dbl>      <dbl>
##  1 Ale    2000       433.
##  2 Ale    2001       359.
##  3 Ale    2002       426.
##  4 Ale    2003       350.
##  5 Ale    2004       384.
##  6 Ale    2005       523.
##  7 Ale    2006       556.
##  8 Ale    2007       543.
##  9 Ale    2008       703.
## 10 Ale    2009       661.
## # ℹ 6,370 more rows
```
Notera att kommunkod saknas i denna tabell.

### **D**: Största parti

Filen `data/2018_K_per_kommun.xlsx` innehåller resultatet från senaste valet till kommunfullmäktige hämtat från [valmyndigheten](https://data.val.se/val/val2018/statistik/index.html). Använd denna för att skapa en tabell som nedan med beteckningen för det parti som fick flest röster i varje kommun. *Tips:* Funktionen `str_pad` kan vara användbar för att skapa kommunkoden.


```r
## # A tibble: 290 × 4
##    KOMMUNKOD code  name           largest_party
##        <dbl> <chr> <chr>          <chr>        
##  1        14 0114  Upplands Väsby S            
##  2        15 0115  Vallentuna     M            
##  3        17 0117  Österåker      M            
##  4        20 0120  Värmdö         M            
##  5        23 0123  Järfälla       S            
##  6        25 0125  Ekerö          M            
##  7        26 0126  Huddinge       S            
##  8        27 0127  Botkyrka       S            
##  9        28 0128  Salem          M            
## 10        36 0136  Haninge        S            
## # ℹ 280 more rows
```
### **E**: Andel elever ej behöriga till gymnasiet

Nästa tabell skall innehålla andelen elever som slutar årskurs 9 utan behörighet till gymnasiet. Det är totalen vi är ute efter, det vill säga utan uppdelning efter skolform eller kön (`Typ av huvudman` och `Kön` antar värde `Samtliga`). Data är hämtade från [Skolverket](https://www.skolverket.se/skolutveckling/statistik/sok-statistik-om-forskola-skola-och-vuxenutbildning?sok=SokD&niva=K&omr=grbetyg&exp=53&lasar=2020&uttag=null) som fyra filer `data/exp_behorig_gy_kommun_2016_17.csv` till `data/exp_behorig_gy_kommun_2020_21.csv`. 

**Korrektion** (2022-06-23): En femte fil saknades tyvärr i lab-underlaget, den kan hämtas med


```r
download.file("https://raw.githubusercontent.com/MT3003-ST22/data/main/exp_behorig_gy_kommun_2019_20.csv", "data/exp_behorig_gy_kommun_2019_20.csv")
```

Läs in alla fem (om du gjorde uppgiften med fyra filer innan ovanstående korrektion får du färre rader, vilket är godkänt) med resultatet

```r
## # A tibble: 1,449 × 4
##    code  name        year not_qualified_perc
##    <chr> <chr>      <dbl>              <dbl>
##  1 1440  Ale         2017               19.3
##  2 1489  Alingsås    2017               13.5
##  3 0764  Alvesta     2017               29.6
##  4 0604  Aneby       2017               26.7
##  5 1984  Arboga      2017               13.9
##  6 2506  Arjeplog    2017               NA  
##  7 2505  Arvidsjaur  2017               26.2
##  8 1784  Arvika      2017               18  
##  9 1882  Askersund   2017               13.1
## 10 2084  Avesta      2017               30.5
## # ℹ 1,439 more rows
```
…
